<?xml version="1.0" encoding="utf-8"?>
<!-- Generator: Adobe Illustrator 22.0.0, SVG Export Plug-In . SVG Version: 6.00 Build 0)  -->
<svg version="1.1" id="Layer_1" xmlns="http://www.w3.org/2000/svg" xmlns:xlink="http://www.w3.org/1999/xlink" x="0px" y="0px"
	 viewBox="0 0 525.1 525.1" style="enable-background:new 0 0 525.1 525.1;" xml:space="preserve">
<style type="text/css">
	.st0{fill:#FFFFFF;}
</style>
<g>
	<path class="st0" d="M262.5,6.5c-141.4,0-256,114.6-256,256s114.6,256,256,256s256-114.6,256-256S403.9,6.5,262.5,6.5z
		 M262.5,476.5c-118.2,0-214-95.8-214-214s95.8-214,214-214s214,95.8,214,214S380.7,476.5,262.5,476.5z"/>
</g>
<g>
	<polygon class="st0" points="410.5,262.5 173.5,125.7 173.5,399.4 	"/>
</g>
</svg>
